4 PracDayFour – Statistical Computing
…
## the routes that more than 1 airline flies
non_distinct_route |> 
  select(1:2) 

# A tibble: 128 × 2
   origin dest 
   <chr>  <chr>
 1 EWR    ATL  
 2 EWR    AUS  
 3 EWR    BDL  
 4 EWR    BNA  
 5 EWR    BOS  
 6 EWR    BWI  
 7 EWR    CHS  
 8 EWR    CLE  
 9 EWR    CLT  
10 EWR    CVG  
# ℹ 118 more rows

# Part 2
ave_arr_delay <- non_distinct_route |> 
  left_join(joined_tbl, join_by(origin, dest)) |> 
  group_by(origin, dest, name) |> 
  summarise(
    average_arrival_delay = mean(na.omit(arr_delay)), .groups = "drop"
    )

## returns the average arrival delay for each airline for each route
ave_arr_delay

# A tibble: 343 × 4
   origin dest  name                     average_arrival_delay
   <chr>  <chr> <chr>                                    <dbl>
 1 EWR    ATL   Delta Air Lines Inc.                     10.0 
 2 EWR    ATL   Endeavor Air Inc.                        -6.25
 3 EWR    ATL   ExpressJet Airlines Inc.                 19.5 
 4 EWR    ATL   United Air Lines Inc.                    10.5 
 5 EWR    AUS   Southwest Airlines Co.                  -11.2 
 6 EWR    AUS   United Air Lines Inc.                     4.28
 7 EWR    BDL   ExpressJet Airlines Inc.                  6.78
 8 EWR    BDL   United Air Lines Inc.                    22.6 
 9 EWR    BNA   ExpressJet Airlines Inc.                 17.7 
10 EWR    BNA   Southwest Airlines Co.                   -2.13
# ℹ 333 more rows

#Part 3
worst_best_delay <-  ave_arr_delay |>
  group_by(origin,dest) |> 
  arrange(average_arrival_delay) |> ## arrange the average_arrival_delays in ascending order
  summarise(
    worst = last(name), ## then the worst would be the last one of the route
    best = first(name),
    .groups = "drop"
            )
  
worst_best_delay

# A tibble: 128 × 4
   origin dest  worst                    best                    
   <chr>  <chr> <chr>                    <chr>                   
 1 EWR    ATL   ExpressJet Airlines Inc. Endeavor Air Inc.       
 2 EWR    AUS   United Air Lines Inc.    Southwest Airlines Co.  
 3 EWR    BDL   United Air Lines Inc.    ExpressJet Airlines Inc.
 4 EWR    BNA   ExpressJet Airlines Inc. Southwest Airlines Co.  
 5 EWR    BOS   JetBlue Airways          ExpressJet Airlines Inc.
 6 EWR    BWI   ExpressJet Airlines Inc. Southwest Airlines Co.  
 7 EWR    CHS   ExpressJet Airlines Inc. United Air Lines Inc.   
 8 EWR    CLE   United Air Lines Inc.    ExpressJet Airlines Inc.
 9 EWR    CLT   ExpressJet Airlines Inc. US Airways Inc.         
10 EWR    CVG   ExpressJet Airlines Inc. Endeavor Air Inc.       
# ℹ 118 more rows
…
